{
  "pkg1": {
    "2021-11-01": {
      "no_files": 2,
      "old": 2,
      "recent": 0,
      "vote": 8
    },
    "2021-11-02": {
      "no_files": 11,
      "old": 0,
      "recent": 0,
      "vote": 0
    },
    "2021-11-03": {
      "no_files": 10,
      "old": 1,
      "recent": 1,
      "vote": 1
    },
    "2021-11-04": {
      "no_files": 0,
      "old": 7,
      "recent": 3,
      "vote": 4
    },
    "2021-12-01": {
      "no_files": 0,
      "old": 2,
      "recent": 0,
      "vote": 8
    },
    "2021-12-02": {
      "no_files": 11,
      "old": 0,
      "recent": 0,
      "vote": 0
    },
    "2021-12-03": {
      "no_files": 10,
      "old": 1,
      "recent": 0,
      "vote": 1
    },
    "2021-12-04": {
      "no_files": 0,
      "old": 7,
      "recent": 3,
      "vote": 4
    },
    "2021-12-05": {
      "no_files": 4,
      "old": 4,
      "recent": 4,
      "vote": 4
    }
  },
  "pkg2": {
    "2021-11-01": {
      "no_files": 0,
      "old": 0,
      "recent": 0,
      "vote": 100
    },
    "2021-11-02": {
      "no_files": 0,
      "old": 0,
      "recent": 0,
      "vote": 100
    },
    "2021-11-03": {
      "no_files": 0,
      "old": 0,
      "recent": 0,
      "vote": 100
    },
    "2021-11-04": {
      "no_files": 0,
      "old": 0,
      "recent": 0,
      "vote": 100
    },
   "2021-12-01": {
      "no_files": 0,
      "old": 0,
      "recent": 0,
      "vote": 100
    },
    "2021-12-02": {
      "no_files": 0,
      "old": 0,
      "recent": 0,
      "vote": 200
    },
    "2021-12-03": {
      "no_files": 0,
      "old": 0,
      "recent": 0,
      "vote": 300
    },
    "2021-12-04": {
      "no_files": 0,
      "old": 0,
      "recent": 0,
      "vote": 400
    },
    "2021-12-06": {
      "no_files": 100,
      "old": 100,
      "recent": 100,
      "vote": 100
    }
  }
}
